<?xml version="1.0" encoding="UTF-8" standalone="no"?>
<svg xmlns="http://www.w3.org/2000/svg" height="48" width="48" version="1.1" viewBox="0 0 45 45">
<path d="m1.842 28.316 41.316-11.632" stroke="#818181" stroke-width="3" fill="none"/>
</svg>
