<?xml version="1.0" encoding="UTF-8" standalone="no"?>
<!-- Created with Inkscape (http://www.inkscape.org/) -->

<svg
   xmlns:dc="http://purl.org/dc/elements/1.1/"
   xmlns:cc="http://creativecommons.org/ns#"
   xmlns:rdf="http://www.w3.org/1999/02/22-rdf-syntax-ns#"
   xmlns:svg="http://www.w3.org/2000/svg"
   xmlns="http://www.w3.org/2000/svg"
   xmlns:sodipodi="http://sodipodi.sourceforge.net/DTD/sodipodi-0.dtd"
   xmlns:inkscape="http://www.inkscape.org/namespaces/inkscape"
   width="48"
   height="48"
   viewBox="0 0 45 45.000001"
   id="svg4958"
   version="1.1"
   inkscape:version="0.92.1 r15371"
   sodipodi:docname="media.svg"
   inkscape:export-filename="D:\0-0-Agata\graphik\pictogrammes\Pictos-fonctions\picto-loupe.png"
   inkscape:export-xdpi="300"
   inkscape:export-ydpi="300">
  <defs
     id="defs4960" />
  <sodipodi:namedview
     id="base"
     pagecolor="#ffffff"
     bordercolor="#666666"
     borderopacity="1.0"
     inkscape:pageopacity="0.0"
     inkscape:pageshadow="2"
     inkscape:zoom="7.9195959"
     inkscape:cx="1.9929543"
     inkscape:cy="29.762198"
     inkscape:document-units="px"
     inkscape:current-layer="layer1"
     showgrid="true"
     units="px"
     inkscape:window-width="1366"
     inkscape:window-height="705"
     inkscape:window-x="-8"
     inkscape:window-y="-8"
     inkscape:window-maximized="1">
    <inkscape:grid
       type="xygrid"
       id="grid6185"
       originx="0"
       originy="0"
       spacingx="1"
       spacingy="1" />
  </sodipodi:namedview>
  <metadata
     id="metadata4963">
    <rdf:RDF>
      <cc:Work
         rdf:about="">
        <dc:format>image/svg+xml</dc:format>
        <dc:type
           rdf:resource="http://purl.org/dc/dcmitype/StillImage" />
        <dc:title></dc:title>
      </cc:Work>
    </rdf:RDF>
  </metadata>
  <g
     inkscape:label="Calque 1"
     inkscape:groupmode="layer"
     id="layer1"
     transform="translate(0,-1007.3622)">
    <rect
       style="opacity:1;fill:none;fill-opacity:1;stroke:none;stroke-width:1.95103896;stroke-linecap:round;stroke-linejoin:round;stroke-miterlimit:4;stroke-dasharray:none;stroke-dashoffset:0;stroke-opacity:1"
       id="rect5524-3"
       width="45"
       height="45"
       x="-47.501274"
       y="1008.649" />
    <path
       style="display:inline;fill:none;fill-rule:evenodd;stroke:none;stroke-width:0.60000008px;stroke-linecap:butt;stroke-linejoin:miter;stroke-opacity:1"
       d="M -20.20591,1022.9818 H 9.5578782 v 29.7638 H -20.20591 Z"
       id="path5102-0"
       inkscape:connector-curvature="0"
       inkscape:export-filename="D:\0-0-Opacite\graphik\pictogrammes\Déf\Sénat.png"
       inkscape:export-xdpi="300"
       inkscape:export-ydpi="300" />
    <g
       id="g25818"
       transform="translate(-1.3745322,1.4544857)">
      <rect
         inkscape:export-ydpi="300"
         inkscape:export-xdpi="300"
         inkscape:export-filename="D:\0-0-Agata\graphik\pictogrammes\Déf-1\visu.png"
         y="1005.9077"
         x="1.3745322"
         height="45"
         width="45"
         id="rect5524"
         style="opacity:1;fill:none;fill-opacity:1;stroke:none;stroke-width:1.95103896;stroke-linecap:round;stroke-linejoin:round;stroke-miterlimit:4;stroke-dasharray:none;stroke-dashoffset:0;stroke-opacity:1" />
      <rect
         inkscape:export-ydpi="300"
         inkscape:export-xdpi="300"
         inkscape:export-filename="D:\0-0-Agata\graphik\pictogrammes\Déf-1\visu.png"
         y="1005.9077"
         x="1.3745322"
         height="45"
         width="45"
         id="rect5524-31"
         style="opacity:1;fill:none;fill-opacity:1;stroke:none;stroke-width:1.95103896;stroke-linecap:round;stroke-linejoin:round;stroke-miterlimit:4;stroke-dasharray:none;stroke-dashoffset:0;stroke-opacity:1" />
      <g
         transform="matrix(0.57499996,0,0,0.57499996,-412.64723,1635.9715)"
         id="g21239"
         style="display:inline">
        <circle
           style="display:inline;opacity:1;fill:#fafafa;fill-opacity:1;stroke:#34a400;stroke-width:3.26609707;stroke-linecap:round;stroke-miterlimit:4;stroke-dasharray:none;stroke-dashoffset:0;stroke-opacity:1"
           id="path5962-9-0-9-9-3-4-3-8-9-0-6-0-8-7-1-4"
           cx="759.16833"
           cy="-1056.6328"
           r="35.866955" />
        <g
           id="g21233"
           transform="matrix(0.98352393,0,0,0.98352393,12.969163,-16.945921)">
          <path
             sodipodi:nodetypes="ccccccccccccccccccc"
             style="fill:#505050;fill-opacity:1;stroke-width:0.58440155"
             id="path20513"
             d="m 763.32413,-1052.6817 c 2.63895,-2.6391 4.6381,-5.8477 5.84402,-9.3797 4.94558,9.7813 -5.4735,20.1964 -15.25285,15.2471 3.53391,-1.2053 6.74458,-3.2045 9.38545,-5.844 z m -15.64445,-4.2778 c -0.002,3.0561 1.23121,5.9832 3.41877,8.1173 7.93966,-1.9264 14.13876,-8.1255 16.06521,-16.0652 -7.12092,-7.2831 -19.48894,-2.238 -19.48398,7.9479 z m 30.53525,25.3922 -13.81525,-11.688 c 3.82249,-1.5034 6.8477,-4.5286 8.35111,-8.3511 l 11.68803,13.8153 c 3.58545,4.1393 -2.08458,9.8093 -6.22389,6.2238 z m -2.64735,-10.9342 -1.20384,-1.2038 c -1.37525,-1.364 -3.42694,0.6876 -2.06295,2.0629 l 1.2039,1.2039 c 1.37529,1.3865 3.44944,-0.6877 2.06289,-2.063 z"
             inkscape:connector-curvature="0" />
          <path
             sodipodi:nodetypes="cccccccscccccccsccccccsccccccccscccscccccccsc"
             style="display:inline;fill:#f61818;fill-opacity:1;stroke:none;stroke-width:0.58440155;stroke-opacity:1"
             id="path20513-0"
             d="m 730.57456,-1056.6328 c -0.003,5.2642 7.34671,6.5167 9.08743,1.5486 h 4.33629 c -0.10802,-1.0277 -0.10802,-2.0638 0,-3.0915 h -4.33629 c -1.73962,-4.9649 -9.0839,-3.7181 -9.08743,1.5429 z m 14.84966,-19.8697 c -2.67951,-2.6966 -7.28578,-1.2379 -7.92491,2.5093 -0.63911,3.7473 3.22321,6.6504 6.64509,4.9944 l 3.07392,3.0739 c 0.65074,-0.8024 1.38325,-1.5349 2.18569,-2.1856 l -3.07398,-3.074 c 0.85437,-1.7856 0.49154,-3.9158 -0.90581,-5.318 z m 1.78824,29.1616 -3.06806,3.074 c -4.74668,-2.2841 -9.05017,3.7991 -5.33184,7.5175 3.71834,3.7183 9.80156,-0.5852 7.51747,-5.3319 l 3.07398,-3.0739 c -0.80431,-0.6506 -1.53878,-1.3831 -2.19155,-2.1857 z m 11.48351,-24.0715 c 0.51729,4e-4 1.03422,0.028 1.54868,0.082 v -4.3362 c 4.97124,-1.7416 3.71261,-9.0857 -1.54575,-9.0857 -5.25836,0 -6.517,7.3441 -1.54575,9.0857 v 4.3362 c 0.51251,-0.054 1.02748,-0.081 1.54282,-0.082 z m 23.44619,10.1044 c -1.98694,4e-4 -3.75653,1.2567 -4.41222,3.1323 h -4.33629 c 0.1082,1.0277 0.1082,2.0638 0,3.0915 h 4.33629 c 1.25698,3.5805 6.03068,4.2508 8.22523,1.1552 2.19455,-3.0957 -0.0183,-7.3783 -3.81301,-7.379 z m -11.96269,-4.6169 3.07393,-3.0739 c 4.74665,2.2842 9.05018,-3.799 5.33191,-7.5174 -3.71827,-3.7184 -9.80154,0.585 -7.51755,5.3317 l -3.07978,3.0682 c 0.80465,0.6523 1.53912,1.3868 2.19149,2.1914 z m -9.93482,28.326 v -4.3362 c -1.02767,0.108 -2.06383,0.108 -3.0915,0 v 4.3362 c -4.97125,1.7415 -3.71261,9.0857 1.54575,9.0857 5.25836,0 6.51699,-7.3442 1.54575,-9.0857 z"
             inkscape:connector-curvature="0" />
        </g>
      </g>
    </g>
  </g>
</svg>
