<?xml version="1.0" encoding="UTF-8" standalone="no"?>
<svg
   xmlns:dc="http://purl.org/dc/elements/1.1/"
   xmlns:cc="http://creativecommons.org/ns#"
   xmlns:rdf="http://www.w3.org/1999/02/22-rdf-syntax-ns#"
   xmlns:svg="http://www.w3.org/2000/svg"
   xmlns="http://www.w3.org/2000/svg"
   xmlns:sodipodi="http://sodipodi.sourceforge.net/DTD/sodipodi-0.dtd"
   xmlns:inkscape="http://www.inkscape.org/namespaces/inkscape"
   data-name="Layer 1"
   viewBox="0 0 48 48"
   x="0px"
   y="0px"
   id="svg2"
   version="1.1"
   inkscape:version="0.91 r13725"
   sodipodi:docname="sensibilisation.svg"
   width="48"
   height="48">
  <metadata
     id="metadata16">
    <rdf:RDF>
      <cc:Work
         rdf:about="">
        <dc:format>image/svg+xml</dc:format>
        <dc:type
           rdf:resource="http://purl.org/dc/dcmitype/StillImage" />
        <dc:title>Artboard 12</dc:title>
      </cc:Work>
    </rdf:RDF>
  </metadata>
  <defs
     id="defs14" />
  <sodipodi:namedview
     pagecolor="#ffffff"
     bordercolor="#666666"
     borderopacity="1"
     objecttolerance="10"
     gridtolerance="10"
     guidetolerance="10"
     inkscape:pageopacity="0"
     inkscape:pageshadow="2"
     inkscape:window-width="1301"
     inkscape:window-height="744"
     id="namedview12"
     showgrid="true"
     inkscape:zoom="7.552"
     inkscape:cx="9.8842344"
     inkscape:cy="18.112593"
     inkscape:window-x="65"
     inkscape:window-y="24"
     inkscape:window-maximized="1"
     inkscape:current-layer="svg2"
     fit-margin-top="0"
     fit-margin-left="0"
     fit-margin-right="0"
     fit-margin-bottom="0">
    <inkscape:grid
       type="xygrid"
       id="grid4144"
       originx="-31.372112"
       originy="15.295509" />
  </sodipodi:namedview>
  <title
     id="title4">Artboard 12</title>
  <rect
     style="opacity:1;fill:#ffffff;fill-opacity:0;fill-rule:nonzero;stroke:none;stroke-width:7.0999999;stroke-linecap:round;stroke-linejoin:round;stroke-miterlimit:4;stroke-dasharray:none;stroke-dashoffset:0;stroke-opacity:1"
     id="rect4416"
     width="48"
     height="48"
     x="2.7416991e-07"
     y="3.3837892e-07" />
  <g
     id="g4418"
     transform="translate(-27.84592,-36.725769)">
    <ellipse
       ry="22.269533"
       rx="22.219534"
       cy="60.725773"
       cx="51.845921"
       id="path4320"
       style="opacity:1;fill:#f0f0f0;fill-opacity:1;fill-rule:nonzero;stroke:#d00080;stroke-width:1.56093359;stroke-linecap:round;stroke-linejoin:round;stroke-miterlimit:4;stroke-dasharray:none;stroke-dashoffset:0;stroke-opacity:1" />
    <ellipse
       cx="51.996716"
       cy="61.183491"
       rx="3.9521401"
       ry="3.8597498"
       id="path4146"
       style="opacity:1;fill:#f0f0f0;fill-opacity:1;fill-rule:nonzero;stroke:#d47513;stroke-width:2.07376409;stroke-linecap:butt;stroke-linejoin:round;stroke-miterlimit:4;stroke-dasharray:none;stroke-dashoffset:0;stroke-opacity:1" />
    <path
       inkscape:connector-curvature="0"
       id="path4148"
       d="m 41.289537,60.992236 c 0,0 10.504975,-11.784872 21.117762,0"
       style="fill:none;fill-rule:evenodd;stroke:#d47513;stroke-width:2.53413153;stroke-linecap:round;stroke-linejoin:miter;stroke-miterlimit:4;stroke-dasharray:none;stroke-opacity:1" />
    <path
       inkscape:connector-curvature="0"
       id="path4148-3"
       d="m 41.254709,61.310915 c 0,0 10.504976,11.784873 21.117762,0"
       style="fill:none;fill-rule:evenodd;stroke:#d47513;stroke-width:2.53413153;stroke-linecap:round;stroke-linejoin:miter;stroke-miterlimit:4;stroke-dasharray:none;stroke-opacity:1" />
    <g
       style="stroke:#d47513;stroke-opacity:1"
       transform="matrix(0.26397202,0,0,0.26397202,37.626551,39.731173)"
       id="g4280">
      <path
         style="fill:none;fill-rule:evenodd;stroke:#d47513;stroke-width:7.0999999;stroke-linecap:round;stroke-linejoin:miter;stroke-miterlimit:4;stroke-dasharray:none;stroke-opacity:1"
         d="M 55,30 55,5"
         id="path4165"
         inkscape:connector-curvature="0" />
      <path
         style="fill:none;fill-rule:evenodd;stroke:#d47513;stroke-width:7.0999999;stroke-linecap:round;stroke-linejoin:miter;stroke-miterlimit:4;stroke-dasharray:none;stroke-opacity:1"
         d="M 45,15 55,5 65,15"
         id="path4167"
         inkscape:connector-curvature="0" />
    </g>
    <g
       style="stroke:#d47513;stroke-opacity:1"
       id="g4173-6"
       transform="matrix(0,0.26397202,-0.26397202,0,73.032923,46.674002)">
      <path
         inkscape:connector-curvature="0"
         id="path4169-7"
         d="M 55,30 55,5"
         style="fill:none;fill-rule:evenodd;stroke:#d47513;stroke-width:7.0999999;stroke-linecap:round;stroke-linejoin:miter;stroke-miterlimit:4;stroke-dasharray:none;stroke-opacity:1" />
      <path
         inkscape:connector-curvature="0"
         id="path4171-5"
         d="M 45,15 55,5 65,15"
         style="fill:none;fill-rule:evenodd;stroke:#d47513;stroke-width:7.0999999;stroke-linecap:round;stroke-linejoin:miter;stroke-miterlimit:4;stroke-dasharray:none;stroke-opacity:1" />
    </g>
    <g
       style="stroke:#d47513;stroke-opacity:1"
       id="g4173-3"
       transform="matrix(0.26397202,0,0,-0.26397202,37.626551,81.720372)">
      <path
         inkscape:connector-curvature="0"
         id="path4169-5"
         d="M 55,30 55,5"
         style="fill:none;fill-rule:evenodd;stroke:#d47513;stroke-width:7.0999999;stroke-linecap:round;stroke-linejoin:miter;stroke-miterlimit:4;stroke-dasharray:none;stroke-opacity:1" />
      <path
         inkscape:connector-curvature="0"
         id="path4171-6"
         d="M 45,15 55,5 65,15"
         style="fill:none;fill-rule:evenodd;stroke:#d47513;stroke-width:7.0999999;stroke-linecap:round;stroke-linejoin:miter;stroke-miterlimit:4;stroke-dasharray:none;stroke-opacity:1" />
    </g>
    <g
       style="stroke:#d47513;stroke-opacity:1"
       id="g4173-2"
       transform="matrix(0,-0.26397202,0.26397202,0,30.658919,75.710925)">
      <path
         inkscape:connector-curvature="0"
         id="path4169-9"
         d="M 55,30 55,5"
         style="fill:none;fill-rule:evenodd;stroke:#d47513;stroke-width:7.0999999;stroke-linecap:round;stroke-linejoin:miter;stroke-miterlimit:4;stroke-dasharray:none;stroke-opacity:1" />
      <path
         inkscape:connector-curvature="0"
         id="path4171-1"
         d="M 45,15 55,5 65,15"
         style="fill:none;fill-rule:evenodd;stroke:#d47513;stroke-width:7.0999999;stroke-linecap:round;stroke-linejoin:miter;stroke-miterlimit:4;stroke-dasharray:none;stroke-opacity:1" />
    </g>
    <g
       style="stroke:#d47513;stroke-opacity:1"
       id="g4173-2-2"
       transform="matrix(0.16869052,0.20303875,-0.20303875,0.16869052,58.550264,35.705237)">
      <path
         inkscape:connector-curvature="0"
         id="path4169-9-7"
         d="M 55,30 55,5"
         style="fill:none;fill-rule:evenodd;stroke:#d47513;stroke-width:7.0999999;stroke-linecap:round;stroke-linejoin:miter;stroke-miterlimit:4;stroke-dasharray:none;stroke-opacity:1" />
      <path
         inkscape:connector-curvature="0"
         id="path4171-1-0"
         d="M 45,15 55,5 65,15"
         style="fill:none;fill-rule:evenodd;stroke:#d47513;stroke-width:7.0999999;stroke-linecap:round;stroke-linejoin:miter;stroke-miterlimit:4;stroke-dasharray:none;stroke-opacity:1" />
    </g>
    <g
       style="stroke:#d47513;stroke-opacity:1"
       id="g4173-2-9"
       transform="matrix(0.26397202,0,0,0.26397202,48.185432,68.466505)">
      <g
         style="stroke:#d47513;stroke-opacity:1"
         transform="matrix(-0.70066952,0.71348597,-0.71348597,-0.70066952,106.26534,-9.5638193)"
         id="g4284">
        <path
           style="fill:none;fill-rule:evenodd;stroke:#d47513;stroke-width:7.0999999;stroke-linecap:round;stroke-linejoin:miter;stroke-miterlimit:4;stroke-dasharray:none;stroke-opacity:1"
           d="M 55,30 55,5"
           id="path4169-9-3"
           inkscape:connector-curvature="0" />
        <path
           style="fill:none;fill-rule:evenodd;stroke:#d47513;stroke-width:7.0999999;stroke-linecap:round;stroke-linejoin:miter;stroke-miterlimit:4;stroke-dasharray:none;stroke-opacity:1"
           d="M 45,15 55,5 65,15"
           id="path4171-1-6"
           inkscape:connector-curvature="0" />
      </g>
    </g>
    <g
       style="stroke:#d47513;stroke-opacity:1"
       id="g4173-2-0"
       transform="matrix(-0.18497361,-0.18832416,0.18832416,-0.18497361,46.847769,85.768966)">
      <path
         inkscape:connector-curvature="0"
         id="path4169-9-6"
         d="M 55,30 55,5"
         style="fill:none;fill-rule:evenodd;stroke:#d47513;stroke-width:7.0999999;stroke-linecap:round;stroke-linejoin:miter;stroke-miterlimit:4;stroke-dasharray:none;stroke-opacity:1" />
      <path
         inkscape:connector-curvature="0"
         id="path4171-1-2"
         d="M 45,15 55,5 65,15"
         style="fill:none;fill-rule:evenodd;stroke:#d47513;stroke-width:7.0999999;stroke-linecap:round;stroke-linejoin:miter;stroke-miterlimit:4;stroke-dasharray:none;stroke-opacity:1" />
    </g>
    <g
       style="stroke:#d47513;stroke-opacity:1"
       id="g4173-2-6"
       transform="matrix(0.17998279,-0.19309951,0.19309951,0.17998279,25.968316,57.565217)">
      <path
         inkscape:connector-curvature="0"
         id="path4169-9-1"
         d="M 55,30 55,5"
         style="fill:none;fill-rule:evenodd;stroke:#d47513;stroke-width:7.0999999;stroke-linecap:round;stroke-linejoin:miter;stroke-miterlimit:4;stroke-dasharray:none;stroke-opacity:1" />
      <path
         inkscape:connector-curvature="0"
         id="path4171-1-8"
         d="M 45,15 55,5 65,15"
         style="fill:none;fill-rule:evenodd;stroke:#d47513;stroke-width:7.0999999;stroke-linecap:round;stroke-linejoin:miter;stroke-miterlimit:4;stroke-dasharray:none;stroke-opacity:1" />
    </g>
  </g>
  <g
     inkscape:groupmode="layer"
     id="layer1"
     inkscape:label="oeil"
     transform="translate(-31.372112,-92.295509)" />
</svg>
