<?xml version="1.0" encoding="UTF-8" standalone="no"?>
<!-- Created with Inkscape (http://www.inkscape.org/) -->

<svg
   xmlns:dc="http://purl.org/dc/elements/1.1/"
   xmlns:cc="http://creativecommons.org/ns#"
   xmlns:rdf="http://www.w3.org/1999/02/22-rdf-syntax-ns#"
   xmlns:svg="http://www.w3.org/2000/svg"
   xmlns="http://www.w3.org/2000/svg"
   xmlns:sodipodi="http://sodipodi.sourceforge.net/DTD/sodipodi-0.dtd"
   xmlns:inkscape="http://www.inkscape.org/namespaces/inkscape"
   width="48"
   height="48"
   viewBox="0 0 45 45.000001"
   id="svg4958"
   version="1.1"
   inkscape:version="0.92.1 r15371"
   sodipodi:docname="expert.svg"
   inkscape:export-filename="D:\0-0-Agata\graphik\pictogrammes\Pictos-fonctions\picto-loupe.png"
   inkscape:export-xdpi="300"
   inkscape:export-ydpi="300">
  <defs
     id="defs4960" />
  <sodipodi:namedview
     id="base"
     pagecolor="#ffffff"
     bordercolor="#666666"
     borderopacity="1.0"
     inkscape:pageopacity="0.0"
     inkscape:pageshadow="2"
     inkscape:zoom="7.9195959"
     inkscape:cx="38.409569"
     inkscape:cy="22.261615"
     inkscape:document-units="px"
     inkscape:current-layer="g21531"
     showgrid="true"
     units="px"
     inkscape:window-width="1366"
     inkscape:window-height="705"
     inkscape:window-x="-8"
     inkscape:window-y="-8"
     inkscape:window-maximized="1">
    <inkscape:grid
       type="xygrid"
       id="grid6185"
       originx="0"
       originy="0"
       spacingx="1"
       spacingy="1" />
  </sodipodi:namedview>
  <metadata
     id="metadata4963">
    <rdf:RDF>
      <cc:Work
         rdf:about="">
        <dc:format>image/svg+xml</dc:format>
        <dc:type
           rdf:resource="http://purl.org/dc/dcmitype/StillImage" />
        <dc:title></dc:title>
      </cc:Work>
    </rdf:RDF>
  </metadata>
  <g
     inkscape:label="Calque 1"
     inkscape:groupmode="layer"
     id="layer1"
     transform="translate(0,-1007.3622)">
    <rect
       style="opacity:1;fill:none;fill-opacity:1;stroke:none;stroke-width:1.95103896;stroke-linecap:round;stroke-linejoin:round;stroke-miterlimit:4;stroke-dasharray:none;stroke-dashoffset:0;stroke-opacity:1"
       id="rect5524-3"
       width="45"
       height="45"
       x="-47.501274"
       y="1008.649" />
    <path
       style="display:inline;fill:none;fill-rule:evenodd;stroke:none;stroke-width:0.60000008px;stroke-linecap:butt;stroke-linejoin:miter;stroke-opacity:1"
       d="M -20.20591,1022.9818 H 9.5578782 v 29.7638 H -20.20591 Z"
       id="path5102-0"
       inkscape:connector-curvature="0"
       inkscape:export-filename="D:\0-0-Opacite\graphik\pictogrammes\Déf\Sénat.png"
       inkscape:export-xdpi="300"
       inkscape:export-ydpi="300" />
    <g
       style="display:inline"
       id="g21531"
       transform="matrix(0.60000001,0,0,0.60000001,-693.46938,1500.3311)">
      <g
         id="g26522"
         transform="translate(-3.2487251,-4.1027351)">
        <rect
           inkscape:export-ydpi="300"
           inkscape:export-xdpi="300"
           inkscape:export-filename="D:\0-0-Agata\graphik\pictogrammes\Déf-1\visu.png"
           y="-817.51208"
           x="1159.031"
           height="75"
           width="75"
           id="rect5524"
           style="opacity:1;fill:none;fill-opacity:1;stroke:none;stroke-width:3.25173163;stroke-linecap:round;stroke-linejoin:round;stroke-miterlimit:4;stroke-dasharray:none;stroke-dashoffset:0;stroke-opacity:1" />
        <rect
           inkscape:export-ydpi="300"
           inkscape:export-xdpi="300"
           inkscape:export-filename="D:\0-0-Agata\graphik\pictogrammes\Déf-1\visu.png"
           y="-817.51208"
           x="1159.031"
           height="75"
           width="75"
           id="rect5524-31"
           style="opacity:1;fill:none;fill-opacity:1;stroke:none;stroke-width:3.25173163;stroke-linecap:round;stroke-linejoin:round;stroke-miterlimit:4;stroke-dasharray:none;stroke-dashoffset:0;stroke-opacity:1" />
        <g
           id="g26440"
           style="display:inline"
           transform="matrix(0.95833324,0,0,0.95833324,294.94915,40.888811)">
          <circle
             style="display:inline;opacity:1;fill:#fafafa;fill-opacity:1;stroke:#0f3dfa;stroke-width:3.26609707;stroke-linecap:round;stroke-miterlimit:4;stroke-dasharray:none;stroke-dashoffset:0;stroke-opacity:1"
             id="path5962-9-0-9-9-3-4-3-8-9-0-6-0-8-43-2"
             cx="940.78113"
             cy="-856.59235"
             r="35.866955" />
          <g
             transform="matrix(0.82566812,0,0,0.82566812,914.29114,-992.22724)"
             id="g4436-1-8"
             style="display:inline;fill:#505050;fill-opacity:1">
            <path
               style="fill:#505050;fill-opacity:1;fill-rule:evenodd;stroke:none;stroke-width:0.35433072;stroke-linecap:butt;stroke-linejoin:miter;stroke-miterlimit:4;stroke-dasharray:none;stroke-opacity:1"
               d="m 35.477352,157.36677 c -7.175176,-0.0434 -10.738781,-4.94195 -10.738781,-4.94195 -4.381065,4.0606 -6.082148,8.24599 -7.022036,14.11061 l 0.01028,31.95343 35.457695,-0.0215 0.0085,-32.0205 c -0.993014,-6.27358 -2.95319,-9.86303 -7.458547,-14.27254 0,0 -2.913605,5.23689 -10.257129,5.19245 z"
               id="path4432-2-9"
               inkscape:connector-curvature="0"
               sodipodi:nodetypes="cccccccsc" />
            <circle
               style="opacity:1;fill:#505050;fill-opacity:1;stroke:none;stroke-width:0.35433072;stroke-miterlimit:4;stroke-dasharray:none;stroke-dashoffset:0;stroke-opacity:1"
               id="path4434-47-0"
               cx="35.454773"
               cy="141.36221"
               r="11" />
          </g>
          <g
             id="layer1-6"
             inkscape:label="Calque 1"
             transform="matrix(0.78790934,0.1674753,-0.1674753,0.78790934,1081.9479,-1669.946)"
             inkscape:export-filename="D:\0-0-Agata\graphik\pictogrammes\Pictos-fonctions\Picto-fonctions-png\loupe.png"
             inkscape:export-xdpi="300"
             inkscape:export-ydpi="300">
            <g
               transform="translate(-0.29204759,0.67378447)"
               id="g6197-8">
              <rect
                 style="opacity:1;fill:none;fill-opacity:1;stroke:none;stroke-width:1.95103896;stroke-linecap:round;stroke-linejoin:round;stroke-miterlimit:4;stroke-dasharray:none;stroke-dashoffset:0;stroke-opacity:1"
                 id="rect5524-1"
                 width="45"
                 height="45"
                 x="0.29204759"
                 y="1006.6884" />
              <g
                 id="g6191-8"
                 transform="matrix(0.6528,0,0,0.6528,-273.7784,419.51895)">
                <path
                   inkscape:connector-curvature="0"
                   id="path6178"
                   d="m 447.53617,928.13785 45.27431,44.79357"
                   style="fill:none;fill-rule:evenodd;stroke:#be4801;stroke-width:8;stroke-linecap:round;stroke-linejoin:miter;stroke-miterlimit:4;stroke-dasharray:none;stroke-opacity:1"
                   sodipodi:nodetypes="cc" />
                <circle
                   r="26.574802"
                   cy="927.8725"
                   cx="448.7486"
                   id="path6161"
                   style="opacity:1;fill:#be4801;fill-opacity:1;stroke:none;stroke-width:1.5;stroke-linecap:round;stroke-linejoin:round;stroke-miterlimit:4;stroke-dasharray:none;stroke-dashoffset:0;stroke-opacity:1" />
                <circle
                   r="19.48819"
                   cy="927.8725"
                   cx="448.7486"
                   id="path6161-7"
                   style="opacity:1;fill:#d9f4fe;fill-opacity:1;stroke:none;stroke-width:1.5;stroke-linecap:round;stroke-linejoin:round;stroke-miterlimit:4;stroke-dasharray:none;stroke-dashoffset:0;stroke-opacity:1" />
                <path
                   sodipodi:nodetypes="sszss"
                   inkscape:connector-curvature="0"
                   id="path6189"
                   d="m 433.27053,929.83321 c 0,6.69962 7.51242,14.21207 14.21206,14.21207 1.33992,0 5.68482,-1.4212 2.8424,-2.84239 -2.8424,-1.42125 -9.94843,-7.10607 -14.21206,-14.21207 -1.03407,-1.72346 -2.8424,1.50248 -2.8424,2.84239 z"
                   style="fill:#91e4ff;fill-opacity:1;fill-rule:evenodd;stroke:none;stroke-width:0.2;stroke-linecap:butt;stroke-linejoin:miter;stroke-miterlimit:4;stroke-dasharray:none;stroke-opacity:1" />
              </g>
            </g>
          </g>
        </g>
      </g>
    </g>
  </g>
</svg>
