<?xml version="1.0" encoding="UTF-8" standalone="no"?>
<!-- Created with Inkscape (http://www.inkscape.org/) -->

<svg
   xmlns:dc="http://purl.org/dc/elements/1.1/"
   xmlns:cc="http://creativecommons.org/ns#"
   xmlns:rdf="http://www.w3.org/1999/02/22-rdf-syntax-ns#"
   xmlns:svg="http://www.w3.org/2000/svg"
   xmlns="http://www.w3.org/2000/svg"
   xmlns:sodipodi="http://sodipodi.sourceforge.net/DTD/sodipodi-0.dtd"
   xmlns:inkscape="http://www.inkscape.org/namespaces/inkscape"
   width="48"
   height="48"
   viewBox="0 0 45 45.000001"
   id="svg4958"
   version="1.1"
   inkscape:version="0.92.1 r15371"
   sodipodi:docname="hyrdocarbures.svg"
   inkscape:export-filename="D:\0-0-Agata\graphik\pictogrammes\Pictos-fonctions\picto-loupe.png"
   inkscape:export-xdpi="300"
   inkscape:export-ydpi="300">
  <defs
     id="defs4960" />
  <sodipodi:namedview
     id="base"
     pagecolor="#ffffff"
     bordercolor="#666666"
     borderopacity="1.0"
     inkscape:pageopacity="0.0"
     inkscape:pageshadow="2"
     inkscape:zoom="7.9195959"
     inkscape:cx="38.409569"
     inkscape:cy="22.261615"
     inkscape:document-units="px"
     inkscape:current-layer="g21531"
     showgrid="true"
     units="px"
     inkscape:window-width="1366"
     inkscape:window-height="705"
     inkscape:window-x="-8"
     inkscape:window-y="-8"
     inkscape:window-maximized="1">
    <inkscape:grid
       type="xygrid"
       id="grid6185"
       originx="0"
       originy="0"
       spacingx="1"
       spacingy="1" />
  </sodipodi:namedview>
  <metadata
     id="metadata4963">
    <rdf:RDF>
      <cc:Work
         rdf:about="">
        <dc:format>image/svg+xml</dc:format>
        <dc:type
           rdf:resource="http://purl.org/dc/dcmitype/StillImage" />
        <dc:title></dc:title>
      </cc:Work>
    </rdf:RDF>
  </metadata>
  <g
     inkscape:label="Calque 1"
     inkscape:groupmode="layer"
     id="layer1"
     transform="translate(0,-1007.3622)">
    <rect
       style="opacity:1;fill:none;fill-opacity:1;stroke:none;stroke-width:1.95103896;stroke-linecap:round;stroke-linejoin:round;stroke-miterlimit:4;stroke-dasharray:none;stroke-dashoffset:0;stroke-opacity:1"
       id="rect5524-3"
       width="45"
       height="45"
       x="-47.501274"
       y="1008.649" />
    <path
       style="display:inline;fill:none;fill-rule:evenodd;stroke:none;stroke-width:0.60000008px;stroke-linecap:butt;stroke-linejoin:miter;stroke-opacity:1"
       d="M -20.20591,1022.9818 H 9.5578782 v 29.7638 H -20.20591 Z"
       id="path5102-0"
       inkscape:connector-curvature="0"
       inkscape:export-filename="D:\0-0-Opacite\graphik\pictogrammes\Déf\Sénat.png"
       inkscape:export-xdpi="300"
       inkscape:export-ydpi="300" />
    <g
       style="display:inline"
       id="g21531"
       transform="matrix(0.60000001,0,0,0.60000001,-693.46938,1500.3311)">
      <g
         id="g26382"
         transform="translate(0.59465867,-0.13752513)">
        <rect
           inkscape:export-ydpi="300"
           inkscape:export-xdpi="300"
           inkscape:export-filename="D:\0-0-Agata\graphik\pictogrammes\Déf-1\visu.png"
           y="-821.47729"
           x="1155.1876"
           height="75"
           width="75"
           id="rect5524"
           style="opacity:1;fill:none;fill-opacity:1;stroke:none;stroke-width:3.25173163;stroke-linecap:round;stroke-linejoin:round;stroke-miterlimit:4;stroke-dasharray:none;stroke-dashoffset:0;stroke-opacity:1" />
        <rect
           inkscape:export-ydpi="300"
           inkscape:export-xdpi="300"
           inkscape:export-filename="D:\0-0-Agata\graphik\pictogrammes\Déf-1\visu.png"
           y="-821.47729"
           x="1155.1876"
           height="75"
           width="75"
           id="rect5524-31"
           style="opacity:1;fill:none;fill-opacity:1;stroke:none;stroke-width:3.25173163;stroke-linecap:round;stroke-linejoin:round;stroke-miterlimit:4;stroke-dasharray:none;stroke-dashoffset:0;stroke-opacity:1" />
        <g
           transform="matrix(0.95833334,0,0,0.95833334,535.58144,-257.69435)"
           id="g21908"
           style="display:inline">
          <circle
             style="display:inline;opacity:1;fill:#f0f0f0;fill-opacity:1;stroke:#d00080;stroke-width:3.26609707;stroke-linecap:round;stroke-miterlimit:4;stroke-dasharray:none;stroke-dashoffset:0;stroke-opacity:1"
             id="path5962-9-0-9-9-3-4-3-8-9-0-8-6-9-0-4-4-0-8-9-8-1"
             cx="685.67596"
             cy="-549.16479"
             r="35.866951" />
          <g
             style="display:inline"
             id="g8123-5"
             transform="matrix(1.2516238,0,0,1.2516238,-295.3013,-1759.0344)">
            <ellipse
               ry="6.2768621"
               rx="17.784443"
               cy="952.3186"
               cx="783.76367"
               id="path7714-1"
               style="opacity:1;fill:#282828;fill-opacity:1;stroke:none;stroke-width:0.1;stroke-miterlimit:4;stroke-dasharray:none;stroke-dashoffset:0;stroke-opacity:1" />
            <ellipse
               ry="6.2768621"
               rx="17.784443"
               cy="980.96136"
               cx="783.76367"
               id="path7714-0-8"
               style="display:inline;opacity:1;fill:#282828;fill-opacity:1;stroke:none;stroke-width:0.1;stroke-miterlimit:4;stroke-dasharray:none;stroke-dashoffset:0;stroke-opacity:1" />
            <ellipse
               ry="6.2768621"
               rx="17.784443"
               cy="966.24304"
               cx="783.76367"
               id="path7714-7-3"
               style="display:inline;opacity:1;fill:#282828;fill-opacity:1;stroke:none;stroke-width:0.1;stroke-miterlimit:4;stroke-dasharray:none;stroke-dashoffset:0;stroke-opacity:1" />
            <rect
               ry="0"
               y="953.32507"
               x="767.28864"
               height="28.452347"
               width="32.950085"
               id="rect7737-5"
               style="opacity:1;fill:#282828;fill-opacity:1;stroke:none;stroke-width:0.1;stroke-miterlimit:4;stroke-dasharray:none;stroke-dashoffset:0;stroke-opacity:1" />
            <ellipse
               ry="4.9210601"
               rx="14.938932"
               cy="952.41901"
               cx="783.76367"
               id="path7714-3-3"
               style="display:inline;opacity:1;fill:#e6e6e6;fill-opacity:1;stroke:none;stroke-width:0.1;stroke-miterlimit:4;stroke-dasharray:none;stroke-dashoffset:0;stroke-opacity:1" />
            <ellipse
               ry="1.4582406"
               rx="3.414613"
               cy="951.90997"
               cx="774.22992"
               id="path7714-72-9"
               style="display:inline;opacity:1;fill:#282828;fill-opacity:1;stroke:none;stroke-width:0.1;stroke-miterlimit:4;stroke-dasharray:none;stroke-dashoffset:0;stroke-opacity:1" />
            <g
               transform="matrix(0.59049,0,0,0.59049,867.10757,381.63687)"
               id="g7773-6">
              <path
                 style="fill:#e6e6e6;fill-opacity:1;fill-rule:evenodd;stroke:none;stroke-width:1px;stroke-linecap:butt;stroke-linejoin:miter;stroke-opacity:1"
                 d="m -141.1875,986.3622 -4.5625,5.90625 c 0,0 -1.49353,2.56424 -2.15625,3.89062 -0.73439,1.46983 -1.25705,2.48959 -1.10447,3.84643 0.29541,2.6268 0.21102,7.5815 7.88572,7.5442 7.6747,-0.037 7.875,-7.1875 7.875,-7.1875 0,0 -0.61579,-3.14647 -1.29687,-4.6875 -0.68108,-1.54103 -2.79688,-4.4375 -2.79688,-4.4375 z"
                 id="path7769-1"
                 inkscape:connector-curvature="0"
                 sodipodi:nodetypes="ccsszczcc" />
              <path
                 style="fill:#505050;fill-opacity:1;fill-rule:evenodd;stroke:none;stroke-width:1px;stroke-linecap:butt;stroke-linejoin:miter;stroke-opacity:1"
                 d="m -141.71875,989.58095 -1.78125,2.9375 c 0,0 -1.58526,2.43291 -2.1875,3.59375 -0.60224,1.16084 -1.13542,2.32293 -1.21875,3.4219 -0.0833,1.099 0.26954,2.0472 0.71875,3.1719 0.44921,1.1247 2.9375,2.6562 2.9375,2.6562 0,0 -1.07342,-3.0123 -1.125,-4.6875 -0.0516,-1.67519 0.53407,-3.95856 1.125,-5.8125 0.59093,-1.85394 1.53125,-5.28125 1.53125,-5.28125 z"
                 id="path7771-4"
                 inkscape:connector-curvature="0"
                 sodipodi:nodetypes="cczzzczzc" />
            </g>
          </g>
        </g>
      </g>
    </g>
  </g>
</svg>
