<?xml version="1.0" encoding="UTF-8" standalone="no"?>
<!-- Created with Inkscape (http://www.inkscape.org/) -->

<svg
   xmlns:dc="http://purl.org/dc/elements/1.1/"
   xmlns:cc="http://creativecommons.org/ns#"
   xmlns:rdf="http://www.w3.org/1999/02/22-rdf-syntax-ns#"
   xmlns:svg="http://www.w3.org/2000/svg"
   xmlns="http://www.w3.org/2000/svg"
   xmlns:sodipodi="http://sodipodi.sourceforge.net/DTD/sodipodi-0.dtd"
   xmlns:inkscape="http://www.inkscape.org/namespaces/inkscape"
   width="48"
   height="48"
   viewBox="0 0 45.000001 45.000001"
   id="svg5612"
   version="1.1"
   inkscape:version="0.92.1 r15371"
   inkscape:export-filename="F:\0-0-Agata\graphik\pictogrammes\Picto-visu-recyclage\eco-organisme.png"
   inkscape:export-xdpi="300"
   inkscape:export-ydpi="300"
   sodipodi:docname="legals.svg">
  <defs
     id="defs5614">
    <style
       id="style5253"
       type="text/css">
   
    .fil0 {fill:black}
   
  </style>
  </defs>
  <sodipodi:namedview
     id="base"
     pagecolor="#ffffff"
     bordercolor="#666666"
     borderopacity="1.0"
     inkscape:pageopacity="0.0"
     inkscape:pageshadow="2"
     inkscape:zoom="7.919596"
     inkscape:cx="6.8383496"
     inkscape:cy="16.95604"
     inkscape:document-units="px"
     inkscape:current-layer="layer1"
     showgrid="false"
     units="px"
     inkscape:window-width="1366"
     inkscape:window-height="705"
     inkscape:window-x="-8"
     inkscape:window-y="-8"
     inkscape:window-maximized="1"
     showguides="false"
     objecttolerance="1" />
  <metadata
     id="metadata5617">
    <rdf:RDF>
      <cc:Work
         rdf:about="">
        <dc:format>image/svg+xml</dc:format>
        <dc:type
           rdf:resource="http://purl.org/dc/dcmitype/StillImage" />
        <dc:title />
      </cc:Work>
    </rdf:RDF>
  </metadata>
  <g
     inkscape:label="Calque 1"
     inkscape:groupmode="layer"
     id="layer1"
     transform="translate(0,-1007.3622)">
    <rect
       style="opacity:1;fill:none;fill-opacity:1;stroke:none;stroke-width:3.75000024;stroke-linecap:round;stroke-linejoin:round;stroke-miterlimit:4;stroke-dasharray:none;stroke-dashoffset:0;stroke-opacity:1"
       id="rect6160"
       width="45"
       height="45"
       x="-0.06331189"
       y="1007.3622"
       inkscape:export-xdpi="300"
       inkscape:export-ydpi="300" />
    <circle
       style="display:inline;opacity:1;fill:#ccdbdc;fill-opacity:1;stroke:#7c9898;stroke-width:1.87800574;stroke-linecap:round;stroke-miterlimit:4;stroke-dasharray:none;stroke-dashoffset:0;stroke-opacity:1"
       id="path5962-9-0-9-9-3-4-3-8-0"
       cx="22.436687"
       cy="1029.8622"
       r="20.623497" />
    <path
       style="fill:#d0dfdf;fill-opacity:1;stroke:none;stroke-width:0.9375px;stroke-linecap:butt;stroke-linejoin:miter;stroke-opacity:1"
       d="m 22.495869,1037.3875 -2.426734,1.2429 -1.242961,2.3084 -0.05918,2.6635 1.242961,1.894 2.545111,1.4205 2.604299,-0.5327 0.828641,-1.0654 -0.769452,-1.4205 -2.6043,0.3552 -1.775659,-1.6573 1.006207,-2.4268 1.953225,-0.5327 1.420527,0.7103 0.887829,-1.5981 -1.006207,-1.3021 z"
       id="path20459"
       inkscape:connector-curvature="0" />
    <path
       style="fill:#d69f0d;fill-opacity:1;stroke-width:0.36299407"
       inkscape:connector-curvature="0"
       d="m 39.224852,1028.7683 -5.372312,-9.329 h 1.488276 c 0.471892,0 0.871185,-0.3993 0.871185,-0.8712 0,-0.4719 -0.399293,-0.8712 -0.871185,-0.8712 H 25.176982 c -0.290396,-0.9438 -1.052683,-1.706 -1.996468,-1.9964 v -1.4883 c 0,-0.4719 -0.399293,-0.8712 -0.871186,-0.8712 -0.471893,0 -0.871186,0.3993 -0.871186,0.8712 v 1.4883 c -0.943785,0.2904 -1.706072,1.0526 -1.996467,1.9964 H 9.5682351 c -0.471892,0 -0.871186,0.3993 -0.871186,0.8712 0,0.4719 0.399294,0.8712 0.871186,0.8712 H 11.09281 l -5.4086119,9.329 c -0.108898,0.1452 -0.145197,0.3629 -0.108898,0.5445 -0.03629,0.254 0.0726,0.5444 0.254096,0.7259 1.996467,1.9602 4.3196299,3.0129 6.6427919,3.0129 2.323162,0 4.646325,-1.0527 6.642792,-3.0129 0.181497,-0.1815 0.290395,-0.4719 0.254096,-0.7259 0,-0.1816 -0.0363,-0.3631 -0.108898,-0.5445 l -5.336013,-9.329 h 5.444911 c 0.290395,0.9438 1.052683,1.7061 1.996467,1.9965 v 16.2623 h -7.296181 c -2.032767,0 -3.702539,1.6697 -3.702539,3.7025 v 1.2704 c 0,0.4719 0.399292,0.8712 0.871185,0.8712 h 22.070041 c 0.471892,0 0.871185,-0.3993 0.871185,-0.8712 v -1.2704 c 0,-2.0328 -1.669872,-3.7227 -3.702539,-3.7025 h -7.33248 v -16.226 c 0.943784,-0.2904 1.706072,-1.0527 1.996467,-1.9965 h 5.807905 l -5.336013,9.2927 c -0.108898,0.1452 -0.145197,0.3266 -0.108898,0.5081 -0.0363,0.2541 0.0726,0.5445 0.254096,0.726 1.996467,1.8876 4.28333,2.904 6.642792,2.904 2.323162,0 4.646324,-1.0164 6.642791,-2.904 0.217796,-0.1815 0.290395,-0.4719 0.254096,-0.726 0.03629,-0.1815 0,-0.3629 -0.0726,-0.5081 z m -31.3263899,-0.2904 4.6100259,-7.9859 4.610025,7.9859 z m 19.9283759,0 4.610025,-7.9859 4.610025,7.9859 z"
       id="path7940"
       sodipodi:nodetypes="ccsssccsssccsssccccscccccccsssssssscccccccsccccccccccc" />
  </g>
</svg>
