<?xml version="1.0" encoding="UTF-8" standalone="no"?>
<!-- Created with Inkscape (http://www.inkscape.org/) -->

<svg
   xmlns:dc="http://purl.org/dc/elements/1.1/"
   xmlns:cc="http://creativecommons.org/ns#"
   xmlns:rdf="http://www.w3.org/1999/02/22-rdf-syntax-ns#"
   xmlns:svg="http://www.w3.org/2000/svg"
   xmlns="http://www.w3.org/2000/svg"
   xmlns:sodipodi="http://sodipodi.sourceforge.net/DTD/sodipodi-0.dtd"
   xmlns:inkscape="http://www.inkscape.org/namespaces/inkscape"
   width="45"
   height="45"
   viewBox="0 0 45 45.000001"
   id="svg4958"
   version="1.1"
   inkscape:version="0.91 r13725"
   sodipodi:docname="visu.svg"
   inkscape:export-filename="D:\0-0-Agata\graphik\pictogrammes\Pictos-fonctions\picto-loupe.png"
   inkscape:export-xdpi="300"
   inkscape:export-ydpi="300">
  <defs
     id="defs4960" />
  <sodipodi:namedview
     id="base"
     pagecolor="#ffffff"
     bordercolor="#666666"
     borderopacity="1.0"
     inkscape:pageopacity="0.0"
     inkscape:pageshadow="2"
     inkscape:zoom="2"
     inkscape:cx="93.842477"
     inkscape:cy="-18.062107"
     inkscape:document-units="px"
     inkscape:current-layer="layer1-3"
     showgrid="true"
     units="px"
     inkscape:window-width="1301"
     inkscape:window-height="744"
     inkscape:window-x="65"
     inkscape:window-y="24"
     inkscape:window-maximized="1"
     inkscape:snap-global="true">
    <inkscape:grid
       type="xygrid"
       id="grid6185" />
  </sodipodi:namedview>
  <metadata
     id="metadata4963">
    <rdf:RDF>
      <cc:Work
         rdf:about="">
        <dc:format>image/svg+xml</dc:format>
        <dc:type
           rdf:resource="http://purl.org/dc/dcmitype/StillImage" />
        <dc:title />
      </cc:Work>
    </rdf:RDF>
  </metadata>
  <g
     inkscape:label="Calque 1"
     inkscape:groupmode="layer"
     id="layer1"
     transform="translate(0,-1007.3622)">
    <rect
       style="opacity:1;fill:none;fill-opacity:1;stroke:none;stroke-width:1.95103896;stroke-linecap:round;stroke-linejoin:round;stroke-miterlimit:4;stroke-dasharray:none;stroke-dashoffset:0;stroke-opacity:1"
       id="rect5524-3"
       width="45"
       height="45"
       x="-47.501274"
       y="1008.649" />
    <rect
       style="opacity:1;fill:none;fill-opacity:1;stroke:none;stroke-width:1.95103896;stroke-linecap:round;stroke-linejoin:round;stroke-miterlimit:4;stroke-dasharray:none;stroke-dashoffset:0;stroke-opacity:1"
       id="rect5524"
       width="45"
       height="45"
       x="-0.15037496"
       y="1007.26"
       inkscape:export-filename="D:\0-0-Agata\graphik\pictogrammes\Pictos-fonctions\Picto-fonctions-png\visu.png"
       inkscape:export-xdpi="300"
       inkscape:export-ydpi="300" />
    <g
       id="layer1-3"
       inkscape:label="Calque 1"
       transform="translate(-0.15037496,-0.10208483)"
       inkscape:export-filename="D:\0-0-Agata\graphik\pictogrammes\Pictos-fonctions\Picto-fonctions-png\visu.png"
       inkscape:export-xdpi="300"
       inkscape:export-ydpi="300">
      <rect
         y="1007.3621"
         x="0"
         height="45"
         width="45"
         id="rect5524-31"
         style="opacity:1;fill:none;fill-opacity:1;stroke:none;stroke-width:1.95103896;stroke-linecap:round;stroke-linejoin:round;stroke-miterlimit:4;stroke-dasharray:none;stroke-dashoffset:0;stroke-opacity:1" />
      <circle
         inkscape:export-ydpi="300"
         inkscape:export-xdpi="300"
         inkscape:export-filename="D:\0-0-Opacite\graphik\pictogrammes\Déf\Evènement.png"
         r="20.666769"
         cy="1029.8622"
         cx="22.500004"
         id="path5087-23-5-9-3-6-9-7"
         style="display:inline;opacity:1;fill:#ebebeb;fill-opacity:1;stroke:#505078;stroke-width:1.66646326;stroke-miterlimit:4;stroke-dasharray:none;stroke-dashoffset:0;stroke-opacity:1" />
      <path
         style="color:#000000;clip-rule:nonzero;display:inline;overflow:visible;visibility:visible;opacity:1;isolation:auto;mix-blend-mode:normal;color-interpolation:sRGB;color-interpolation-filters:linearRGB;solid-color:#000000;solid-opacity:1;fill:none;fill-opacity:1;fill-rule:nonzero;stroke:#000000;stroke-width:1.39999998;stroke-linecap:round;stroke-linejoin:round;stroke-miterlimit:4;stroke-dasharray:none;stroke-dashoffset:0;stroke-opacity:1;color-rendering:auto;image-rendering:auto;shape-rendering:auto;text-rendering:auto;enable-background:accumulate"
         d="m 37.043232,1028.9287 c 0,7.732 -6.268014,14 -14,14 -2.282164,0 -6.340343,-1.5147 -6.340343,-1.5147 l -7.0610369,1.744 1.8202129,-6.3607 c 0,0 -2.4188325,-4.9513 -2.4188325,-7.8686 0,-7.732 6.2680135,-14 13.9999995,-14 7.731986,0 14,6.268 14,14 z"
         id="path4171"
         inkscape:connector-curvature="0"
         sodipodi:nodetypes="sscccsss" />
      <path
         style="fill:none;fill-rule:evenodd;stroke:#000000;stroke-width:1px;stroke-linecap:butt;stroke-linejoin:miter;stroke-opacity:1"
         d="m 35.150375,1035.4643 c -8.257831,-3.9964 -16.217648,-3.3735 -24,0"
         id="path4174"
         inkscape:connector-curvature="0"
         sodipodi:nodetypes="cc" />
      <path
         style="fill:none;fill-rule:evenodd;stroke:#000000;stroke-width:1px;stroke-linecap:butt;stroke-linejoin:miter;stroke-opacity:1"
         d="m 35.150375,1021.6609 c -8.257831,3.9964 -16.217648,3.3735 -24,0"
         id="path4174-3"
         inkscape:connector-curvature="0"
         sodipodi:nodetypes="cc" />
      <path
         style="fill:none;fill-rule:evenodd;stroke:#000000;stroke-width:0.97194785px;stroke-linecap:butt;stroke-linejoin:miter;stroke-opacity:1"
         d="m 23.068042,1014.8721 c -9.010228,5.1423 -5.31904,28.7642 0,28.1865"
         id="path4191"
         inkscape:connector-curvature="0"
         sodipodi:nodetypes="cc" />
      <path
         style="fill:none;fill-rule:evenodd;stroke:#000000;stroke-width:0.97194785px;stroke-linecap:butt;stroke-linejoin:miter;stroke-opacity:1"
         d="m 22.719827,1014.9614 c 9.010228,5.1423 5.31904,28.7642 0,28.1865"
         id="path4191-7"
         inkscape:connector-curvature="0"
         sodipodi:nodetypes="cc" />
      <flowRoot
         xml:space="preserve"
         id="flowRoot4262"
         style="font-style:normal;font-weight:normal;font-size:10px;line-height:125%;font-family:sans-serif;text-align:start;letter-spacing:0px;word-spacing:0px;text-anchor:start;fill:#000000;fill-opacity:1;stroke:none;stroke-width:1px;stroke-linecap:butt;stroke-linejoin:miter;stroke-opacity:1"
         transform="translate(0.150375,1007.4643)"><flowRegion
           id="flowRegion4264"><rect
             id="rect4266"
             width="29"
             height="17"
             x="68"
             y="13"
             style="text-align:start;text-anchor:start" /></flowRegion><flowPara
           id="flowPara4268">langue</flowPara></flowRoot>    </g>
  </g>
</svg>
